03_spatial_data_in_r.utf8.md
…
Source files for read_csv() can either be on a local hard drive or, and this is pretty cool, on the web. We will be using the former for our examples and exercises. If you had a file available from a URL it would be accessed like mydf <- read.csv("https://example.com/my_cool_file.csv"). As an aside, paths and the use of forward vs back slash is important. R is looking for forward slashes (/), or unix-like paths. You can use these in place of the back slash and be fine. You can use a back slash but it needs to be a double back slash (\\). This is becuase the single backslash in an escape character that is used to indicate things like newlines or tabs.

For todays workshop we will focus on both grabbing data from a local file and from a URL, we already have an example of this in our nla_analysis.R. In that file look for the line where we use read_csv()

For your convenience, it looks like:

nla_wq_all <- read_csv("nla2007_chemical_conditionestimates_20091123.csv")

Run that code, and then we can take a look at our data frame:

nla_wq_all

## # A tibble: 1,252 x 51
##    SITE_ID VISIT_NO SITE_TYPE LAKE_SAMP TNT   LAT_DD LON_DD ST    EPA_REG
##    <chr>      <dbl> <chr>     <chr>     <chr>  <dbl>  <dbl> <chr> <chr>  
##  1 NLA066~        1 PROB_Lake Target_S~ Targ~   49.0 -114.  MT    Region~
##  2 NLA066~        1 PROB_Lake Target_S~ Targ~   33.0  -80.0 SC    Region~
##  3 NLA066~        2 PROB_Lake Target_S~ Targ~   33.0  -80.0 SC    Region~
##  4 NLA066~        1 PROB_Lake Target_S~ Targ~   28.0  -97.9 TX    Region~
##  5 NLA066~        2 PROB_Lake Target_S~ Targ~   28.0  -97.9 TX    Region~
##  6 NLA066~        1 PROB_Lake Target_S~ Targ~   37.4 -108.  CO    Region~
##  7 NLA066~        2 PROB_Lake Target_S~ Targ~   37.4 -108.  CO    Region~
##  8 NLA066~        1 PROB_Lake Target_S~ Targ~   43.9 -115.  ID    Region~
##  9 NLA066~        2 PROB_Lake Target_S~ Targ~   43.9 -115.  ID    Region~
## 10 NLA066~        1 PROB_Lake Target_S~ Targ~   41.7  -73.1 CT    Region~
## # ... with 1,242 more rows, and 42 more variables: AREA_CAT7 <chr>,
## #   NESLAKE <chr>, STRATUM <chr>, PANEL <chr>, DSGN_CAT <chr>,
## #   MDCATY <dbl>, WGT <dbl>, WGT_NLA <dbl>, ADJWGT_CAT <chr>, URBAN <chr>,
## #   WSA_ECO3 <chr>, WSA_ECO9 <chr>, ECO_LEV_3 <dbl>, NUT_REG <chr>,
## #   NUTREG_NAME <chr>, ECO_NUTA <chr>, LAKE_ORIGIN <chr>,
## #   ECO3_X_ORIGIN <chr>, REF_CLUSTER <chr>, RT_NLA <chr>, HUC_2 <dbl>,
## #   HUC_8 <dbl>, FLAG_INFO <chr>, COMMENT_INFO <chr>, SAMPLED <chr>,
## #   SAMPLED_CHEM <chr>, INDXSAMP_CHEM <chr>, PTL <dbl>, NTL <dbl>,
## #   TURB <dbl>, ANC <dbl>, DOC <dbl>, COND <dbl>, SAMPLED_CHLA <chr>,
…
