…
```r
nla_wq_all <- read_csv("nla2007_chemical_conditionestimates_20091123.csv")
```

And now we can take a look at our data frame


```r
nla_wq_all
```

```
## # A tibble: 1,252 x 51
##    SITE_ID VISIT_NO SITE_TYPE LAKE_SAMP TNT   LAT_DD LON_DD ST    EPA_REG
##    <chr>      <dbl> <chr>     <chr>     <chr>  <dbl>  <dbl> <chr> <chr>  
##  1 NLA066~        1 PROB_Lake Target_S~ Targ~   49.0 -114.  MT    Region~
##  2 NLA066~        1 PROB_Lake Target_S~ Targ~   33.0  -80.0 SC    Region~
##  3 NLA066~        2 PROB_Lake Target_S~ Targ~   33.0  -80.0 SC    Region~
##  4 NLA066~        1 PROB_Lake Target_S~ Targ~   28.0  -97.9 TX    Region~
##  5 NLA066~        2 PROB_Lake Target_S~ Targ~   28.0  -97.9 TX    Region~
##  6 NLA066~        1 PROB_Lake Target_S~ Targ~   37.4 -108.  CO    Region~
##  7 NLA066~        2 PROB_Lake Target_S~ Targ~   37.4 -108.  CO    Region~
##  8 NLA066~        1 PROB_Lake Target_S~ Targ~   43.9 -115.  ID    Region~
##  9 NLA066~        2 PROB_Lake Target_S~ Targ~   43.9 -115.  ID    Region~
## 10 NLA066~        1 PROB_Lake Target_S~ Targ~   41.7  -73.1 CT    Region~
## # ... with 1,242 more rows, and 42 more variables: AREA_CAT7 <chr>,
## #   NESLAKE <chr>, STRATUM <chr>, PANEL <chr>, DSGN_CAT <chr>,
## #   MDCATY <dbl>, WGT <dbl>, WGT_NLA <dbl>, ADJWGT_CAT <chr>, URBAN <chr>,
## #   WSA_ECO3 <chr>, WSA_ECO9 <chr>, ECO_LEV_3 <dbl>, NUT_REG <chr>,
## #   NUTREG_NAME <chr>, ECO_NUTA <chr>, LAKE_ORIGIN <chr>,
## #   ECO3_X_ORIGIN <chr>, REF_CLUSTER <chr>, RT_NLA <chr>, HUC_2 <dbl>,
## #   HUC_8 <dbl>, FLAG_INFO <chr>, COMMENT_INFO <chr>, SAMPLED <chr>,
## #   SAMPLED_CHEM <chr>, INDXSAMP_CHEM <chr>, PTL <dbl>, NTL <dbl>,
## #   TURB <dbl>, ANC <dbl>, DOC <dbl>, COND <dbl>, SAMPLED_CHLA <chr>,
…
