…
```r
nla_wq_all <- read_csv("nla2007_chemical_conditionestimates_20091123.csv")
```

And now we can take a look at our data frame


```r
nla_wq_all
```

```
## # A tibble: 1,252 x 51
##    SITE_ID VISIT_NO SITE_TYPE LAKE_SAMP TNT   LAT_DD LON_DD ST    EPA_REG
##    <chr>      <int> <chr>     <chr>     <chr>  <dbl>  <dbl> <chr> <chr>  
##  1 NLA066~        1 PROB_Lake Target_S~ Targ~   49.0 -114.  MT    Region~
##  2 NLA066~        1 PROB_Lake Target_S~ Targ~   33.0  -80.0 SC    Region~
##  3 NLA066~        2 PROB_Lake Target_S~ Targ~   33.0  -80.0 SC    Region~
##  4 NLA066~        1 PROB_Lake Target_S~ Targ~   28.0  -97.9 TX    Region~
##  5 NLA066~        2 PROB_Lake Target_S~ Targ~   28.0  -97.9 TX    Region~
##  6 NLA066~        1 PROB_Lake Target_S~ Targ~   37.4 -108.  CO    Region~
##  7 NLA066~        2 PROB_Lake Target_S~ Targ~   37.4 -108.  CO    Region~
##  8 NLA066~        1 PROB_Lake Target_S~ Targ~   43.9 -115.  ID    Region~
##  9 NLA066~        2 PROB_Lake Target_S~ Targ~   43.9 -115.  ID    Region~
## 10 NLA066~        1 PROB_Lake Target_S~ Targ~   41.7  -73.1 CT    Region~
## # ... with 1,242 more rows, and 42 more variables: AREA_CAT7 <chr>,
## #   NESLAKE <chr>, STRATUM <chr>, PANEL <chr>, DSGN_CAT <chr>,
## #   MDCATY <dbl>, WGT <dbl>, WGT_NLA <dbl>, ADJWGT_CAT <chr>, URBAN <chr>,
## #   WSA_ECO3 <chr>, WSA_ECO9 <chr>, ECO_LEV_3 <int>, NUT_REG <chr>,
## #   NUTREG_NAME <chr>, ECO_NUTA <chr>, LAKE_ORIGIN <chr>,
## #   ECO3_X_ORIGIN <chr>, REF_CLUSTER <chr>, RT_NLA <chr>, HUC_2 <int>,
## #   HUC_8 <int>, FLAG_INFO <chr>, COMMENT_INFO <chr>, SAMPLED <chr>,
## #   SAMPLED_CHEM <chr>, INDXSAMP_CHEM <chr>, PTL <int>, NTL <int>,
## #   TURB <dbl>, ANC <dbl>, DOC <dbl>, COND <int>, SAMPLED_CHLA <chr>,
…
There are a lot of different ways to manipulate data in R, but one that is a fairly recent addition and that is part of the core of the Tidyverse is `dplyr`.  In particular, we are going to look at selecting columns, filtering data, adding new columns, grouping data, and summarizing data.  

#### select

Often we get datasets that have many columns or we might what to re-order those columns.  We can accomplish both of these with select.  Here's a quick example with the `iris` dataset.  We will also be introducing the concept of the pipe: `%>%` which we will be using going forward.  Let's look at some code that we can disect.


```r
iris_petals <- iris %>%
  select(Species, Petal.Width, Petal.Length)
as_tibble(iris_petals) #the as_tibble function helps make the output cleaner looking
```

```
## # A tibble: 150 x 3
##    Species Petal.Width Petal.Length
##    <fct>         <dbl>        <dbl>
##  1 setosa          0.2          1.4
##  2 setosa          0.2          1.4
##  3 setosa          0.2          1.3
##  4 setosa          0.2          1.5
##  5 setosa          0.2          1.4
##  6 setosa          0.4          1.7
##  7 setosa          0.3          1.4
##  8 setosa          0.2          1.5
##  9 setosa          0.2          1.4
## 10 setosa          0.1          1.5
## # ... with 140 more rows
```
…
#### filter

The `filter()` function allows us to fiter our data that meets certain criteria.  For instance, we might want to further manipulate our 3 column data frame with only one species of Iris and Petals greater than the median petal width.


```r
iris_petals_virginica <- iris %>%
  select(species = Species, petal_width = Petal.Width, petal_length = Petal.Length) %>%
  filter(species == "virginica") %>%
  filter(petal_width >= median(petal_width))
as_tibble(iris_petals_virginica)  
```

```
## # A tibble: 29 x 3
##    species   petal_width petal_length
##    <fct>           <dbl>        <dbl>
##  1 virginica         2.5          6  
##  2 virginica         2.1          5.9
##  3 virginica         2.2          5.8
##  4 virginica         2.1          6.6
##  5 virginica         2.5          6.1
##  6 virginica         2            5.1
##  7 virginica         2.1          5.5
##  8 virginica         2            5  
##  9 virginica         2.4          5.1
## 10 virginica         2.3          5.3
## # ... with 19 more rows
```

#### mutate

Now say we have some research that suggest the ratio of the petal width and length is imporant.  We might want to add that as a new column in our data set.


```r
iris_petals_ratio <- iris %>%
  select(species = Species, petal_width = Petal.Width, petal_length = Petal.Length) %>%
  mutate(petal_ratio = petal_width/petal_length)
as_tibble(iris_petals_ratio)
```

```
## # A tibble: 150 x 4
##    species petal_width petal_length petal_ratio
##    <fct>         <dbl>        <dbl>       <dbl>
##  1 setosa          0.2          1.4      0.143 
##  2 setosa          0.2          1.4      0.143 
##  3 setosa          0.2          1.3      0.154 
##  4 setosa          0.2          1.5      0.133 
##  5 setosa          0.2          1.4      0.143 
##  6 setosa          0.4          1.7      0.235 
##  7 setosa          0.3          1.4      0.214 
##  8 setosa          0.2          1.5      0.133 
##  9 setosa          0.2          1.4      0.143 
## 10 setosa          0.1          1.5      0.0667
## # ... with 140 more rows
```
…
